Asure server list
10.80.1.16 
10.90.1.16  
10.90.5.11 
10.91.128.11  
10.92.128.11  
10.93.0.11 
10.93.128.50 
10.94.0.101 
10.94.128.121

-----------------------------------------

10.80.10.4 
10.86.1.11 
10.90.10.4 
10.97.5.11 

Port open for ens10 servers

telnet 10.48.19.241 80
telnet 10.48.19.241 443
telnet 10.48.19.241 8081
telnet 10.48.19.242 80
telnet 10.48.19.242 443
telnet 10.48.19.242 8081 
telnet 10.59.19.84 80
telnet 10.59.19.84 443
telnet 10.59.19.84 8081
telnet 10.48.19.38 80
telnet 10.48.19.38 443
telnet 10.48.19.38 8081
telnet 10.48.19.39 80
telnet 10.48.19.39 443
telnet 10.48.19.39 8081
telnet 10.48.19.40 80
telnet 10.48.19.40 443
telnet 10.48.19.40 8081  


telnet 10.48.19.242 80 
telnet 10.48.19.242 443 
telnet 10.48.19.241 80
telnet 10.48.19.241 443
telnet 10.59.19.84 443 
 telnet 10.48.19.39 80 
telnet 10.48.19.40 443 
